<svg width="101" height="101" viewBox="0 0 101 101" fill="none" xmlns="http://www.w3.org/2000/svg">
<path d="M87.666 11.582H26.572C22.924 11.582 20.001 14.147 19.917 17.46V30.274C19.917 31.103 20.588 31.774 21.417 31.774C22.246 31.774 22.917 31.103 22.917 30.274V17.498C22.958 15.89 24.598 14.582 26.572 14.582H87.666C89.684 14.582 91.325 15.917 91.325 17.559V66.505C91.325 68.148 89.683 69.484 87.666 69.484H26.572C24.557 69.484 22.917 68.148 22.917 66.505V59.498C22.917 58.67 22.246 57.998 21.417 57.998C20.588 57.998 19.917 58.67 19.917 59.498V66.505C19.917 69.802 22.902 72.484 26.572 72.484H55.39V85.419H36.349C35.52 85.419 34.849 86.091 34.849 86.919C34.849 87.747 35.52 88.419 36.349 88.419H77.263C78.091 88.419 78.763 87.747 78.763 86.919C78.763 86.091 78.091 85.419 77.263 85.419H58.39V72.483H87.666C91.338 72.483 94.325 69.801 94.325 66.504V17.559C94.325 14.263 91.338 11.582 87.666 11.582Z" fill="white"/>
<path d="M47.129 36.057H79.28C80.108 36.057 80.78 35.386 80.78 34.557C80.78 33.728 80.108 33.057 79.28 33.057H47.129C46.3 33.057 45.629 33.728 45.629 34.557C45.629 35.386 46.3 36.057 47.129 36.057Z" fill="white"/>
<path d="M47.129 45.556H79.28C80.108 45.556 80.78 44.885 80.78 44.056C80.78 43.227 80.108 42.556 79.28 42.556H47.129C46.3 42.556 45.629 43.227 45.629 44.056C45.629 44.885 46.3 45.556 47.129 45.556Z" fill="white"/>
<path d="M47.129 55.58H79.28C80.108 55.58 80.78 54.908 80.78 54.08C80.78 53.252 80.108 52.58 79.28 52.58H47.129C46.3 52.58 45.629 53.252 45.629 54.08C45.629 54.908 46.3 55.58 47.129 55.58Z" fill="white"/>
<path d="M21.111 48.725C21.498 48.725 21.882 48.576 22.172 48.286L43.844 26.613C44.43 26.027 44.43 25.077 43.844 24.492C43.258 23.906 42.309 23.906 41.723 24.492L20.948 45.268L8.04499 36.082C7.36899 35.602 6.43399 35.76 5.95299 36.434C5.47299 37.109 5.62999 38.046 6.30599 38.526L20.243 48.447C20.504 48.634 20.809 48.725 21.111 48.725Z" fill="white"/>
</svg>
