<svg xmlns="http://www.w3.org/2000/svg" width="18" height="13" viewBox="0 0 18 13">
    <path fill="#949494" fill-rule="nonzero" d="M17.883 2.87c0-1.523-1.164-2.748-2.602-2.748A132.282 132.282 0 0 0 9.318 0h-.633C6.66 0 4.67.034 2.722.122 1.287.122.123 1.354.123 2.877A47.76 47.76 0 0 0 0 6.493c-.003 1.205.035 2.41.12 3.619 0 1.523 1.164 2.759 2.598 2.759 2.047.091 4.146.132 6.28.128 2.138.007 4.23-.034 6.28-.128 1.438 0 2.602-1.236 2.602-2.76A49.85 49.85 0 0 0 18 6.49a47.898 47.898 0 0 0-.117-3.618zM7.28 9.815V3.162l5.098 3.324-5.098 3.328z"/>
</svg>
