<svg xmlns="http://www.w3.org/2000/svg" width="51" height="51" viewBox="0 0 51 51">
    <g fill="none" fill-rule="evenodd">
        <path stroke="#8CA522" stroke-width="2" d="M50 25.5C50 39.031 39.031 50 25.5 50S1 39.031 1 25.5 11.969 1 25.5 1 50 11.969 50 25.5"/>
        <path fill="#8CA522" d="M21.05 21.994c1.426-1.427 2.669-2.306.14-5.451-2.528-3.146-4.213-.73-5.596.652-1.594 1.595-.084 7.54 5.793 13.418C27.264 36.489 33.21 38 34.805 36.405c1.383-1.382 3.798-3.067.652-5.595-3.144-2.528-4.024-1.286-5.451.14-.997.997-3.518-1.084-5.695-3.26-2.177-2.178-4.258-4.7-3.262-5.696z"/>
    </g>
</svg>
