<svg width="242" height="24" viewBox="0 0 242 24" fill="none" xmlns="http://www.w3.org/2000/svg">
<g clip-path="url(#clip0)">
<path d="M17.016 14.7092H12.7776V20.2803H17.016V14.7092Z" fill="#5F2D91"/>
<path d="M0 14.7092V20.2803H4.23846V14.7092H0.791686H0Z" fill="#5F2D91"/>
<path d="M21.3375 14.7092V20.2803H25.5379H25.5759V14.7092H21.3375Z" fill="#5F2D91"/>
<path d="M54.3843 14.7091C53.805 15.3878 53.0864 15.9326 52.2778 16.3061C51.4693 16.6796 50.5898 16.873 49.6999 16.873C48.8099 16.873 47.9305 16.6796 47.122 16.3061C46.3134 15.9326 45.5948 15.3878 45.0155 14.7091H39.9715C41.503 18.4637 45.0362 20.8393 49.6895 20.8393C54.3428 20.8393 57.8864 18.4567 59.3903 14.7021H54.3843V14.7091Z" fill="#5F2D91"/>
<path d="M75.8566 14.7092V16.4945H67.9052C68.1437 15.9144 68.3581 15.317 68.5586 14.7092H64.1922C63.9813 15.3136 63.7497 15.904 63.5008 16.4945H61.6478V24.0001H65.6373V20.2803H78.4114V24.0001H82.3975V16.4945H80.0674V14.7092H75.8566Z" fill="#5F2D91"/>
<path d="M96.7551 14.7092C96.5096 16.2548 95.0611 16.9668 92.4094 16.9668C91.5313 16.9668 90.6221 16.9043 89.6783 16.8418V14.7092H85.4433V20.2143C87.0128 20.3115 89.3049 20.3741 92.2539 20.3741C97.4984 20.3741 101.018 18.4603 101.211 14.7092H96.7551V14.7092Z" fill="#5F2D91"/>
<path d="M108.803 14.7092H105.474H104.541V20.2803H105.955L111.572 14.7092H108.803Z" fill="#5F2D91"/>
<path d="M121.996 14.7092H117.947V20.2803H121.996V14.7092Z" fill="#5F2D91"/>
<path d="M128.917 14.7092L124.305 20.2803H126.469H129.733L134.134 14.7092H133.18H128.917Z" fill="#5F2D91"/>
<path d="M145.802 14.7092H144.799L149.196 20.2803H150.061H154.628L150.016 14.7092H149.062H145.802Z" fill="#5F2D91"/>
<path d="M137.394 14.7092V20.2803H138.258H141.539V14.7092H138.393H137.394Z" fill="#5F2D91"/>
<path d="M156.968 14.7092V20.2803H157.722H163.153H165.49H171.972V16.557H169.666H161.141V14.7092H156.968Z" fill="#5F2D91"/>
<path d="M192.494 14.7092H188.255V20.2803H192.494V14.7092Z" fill="#5F2D91"/>
<path d="M179.405 14.7092H175.167V20.2803H179.405V14.7092Z" fill="#5F2D91"/>
<path d="M214.27 14.7092H210.222V20.2803H214.27V14.7092Z" fill="#5F2D91"/>
<path d="M196.819 14.7092V20.2803H198.233L203.85 14.7092H201.081H196.819Z" fill="#5F2D91"/>
<path d="M218.595 14.7092V20.2803H218.747H222.796H227.12H233.603V16.557H231.297H222.771V14.7092H218.595Z" fill="#5F2D91"/>
<path d="M21.3375 0.347412H17.0161H8.52533V6.83887H12.7603V4.19575H12.7776H21.2995V6.83887H25.5379V0.347412H21.3375Z" fill="#FF8C20"/>
<path d="M43.9749 6.83887H45.6619C45.4511 3.25103 43.2143 0.347412 37.6829 0.347412H29.8628V6.83887H34.1013V4.06029H37.427C40.1927 4.06029 41.0881 5.26203 41.2299 6.83887H43.9749Z" fill="#FF8C20"/>
<path d="M53.0326 6.83878C53.5768 5.948 54.3392 5.21228 55.2471 4.70191C56.155 4.19153 57.1779 3.92354 58.2183 3.92354C59.2586 3.92354 60.2816 4.19153 61.1895 4.70191C62.0973 5.21228 62.8598 5.948 63.404 6.83878H68.1576C66.8439 2.66049 63.2139 0 58.2148 0C53.2158 0 49.572 2.66049 48.2341 6.83878H53.0326Z" fill="#FF8C20"/>
<path d="M80.0674 0.347412H74.2733V2.6189C74.2733 4.1888 74.2352 5.57809 74.1592 6.83887H78.2801C78.2801 6.64785 78.2801 6.47071 78.2801 6.27621V4.13323H84.3681V6.83887H88.5755V0.347412H80.0674Z" fill="#FF8C20"/>
<path d="M108.734 6.83867C108.913 6.29056 109.004 5.71721 109.004 5.14027C109.004 2.14287 106.522 0.190918 100.997 0.190918C98.6427 0.190918 96.195 0.253436 93.9651 0.347213V6.83867H98.2036V3.6572C98.9573 3.62594 99.8043 3.59468 100.779 3.59468C103.133 3.59468 104.544 4.3831 104.544 5.92869C104.543 6.2408 104.482 6.54975 104.364 6.83867H108.734V6.83867Z" fill="#FF8C20"/>
<path d="M130.518 6.83887V0.347412H130.144H129.2L122.587 6.83887H126.258H130.518Z" fill="#FF8C20"/>
<path d="M117.114 0.347412H113.066V6.83887H117.114V0.347412Z" fill="#FF8C20"/>
<path d="M157.075 6.83887L162.178 0.347412H157.314L152.401 6.83887H152.809H157.075Z" fill="#FF8C20"/>
<path d="M150.061 6.83887V0.347412H148.789H145.919V6.83887H148.139H150.061Z" fill="#FF8C20"/>
<path d="M141.656 6.83887H143.579L138.669 0.347412H137.394H133.802L138.908 6.83887H139.319H141.656Z" fill="#FF8C20"/>
<path d="M179.405 0.347412H175.167H171.844H165.49V6.83887H169.666V4.06724H171.844H180.37V0.347412H179.405Z" fill="#FF8C20"/>
<path d="M187.927 0.347412H183.688V6.83887H187.927V0.347412Z" fill="#FF8C20"/>
<path d="M200.867 0.347412H196.819H196.781V6.83887H201.019V0.347412H200.867Z" fill="#FF8C20"/>
<path d="M222.796 6.83887V0.347412H221.478L214.861 6.83887H218.533H222.796Z" fill="#FF8C20"/>
<path d="M209.396 0.347412H205.344V6.83887H209.396V0.347412Z" fill="#FF8C20"/>
<path d="M233.475 4.06724H242V0.347412H233.475H227.12V6.83887H231.297V4.06724H233.475Z" fill="#FF8C20"/>
<path d="M8.50109 6.83887H4.26263V14.7092H8.50109V6.83887Z" fill="#F03723"/>
<path d="M21.2787 6.83887H17.0403V14.7092H21.2787V6.83887Z" fill="#F03723"/>
<path d="M29.8386 14.2855C30.979 14.4934 32.1369 14.5887 33.2958 14.5703C37.4063 14.5703 41.427 12.6461 41.427 7.41195C41.427 7.21745 41.427 7.02642 41.4062 6.83887H36.9672C36.9672 6.99516 36.9949 7.15146 36.9949 7.3147C36.9949 9.99603 35.1419 10.9755 32.6942 10.9755C31.7387 10.9914 30.7836 10.9275 29.8386 10.7845V6.83887H25.6002V14.7092H29.8386V14.2855Z" fill="#F03723"/>
<path d="M63.9087 6.83887H59.1551C59.759 7.93349 60.0654 9.16848 60.0436 10.4198C60.0855 11.9736 59.5908 13.4941 58.6435 14.7231H63.6529C64.1887 13.3521 64.4654 11.8927 64.4688 10.4198C64.4626 9.20461 64.2738 7.99736 63.9087 6.83887Z" fill="#F03723"/>
<path d="M43.9748 6.83887C43.6029 7.996 43.4105 9.20379 43.4044 10.4198C43.4161 11.8903 43.7035 13.3455 44.2514 14.7092H49.2954C48.3568 13.4765 47.8686 11.9572 47.9125 10.4059C47.8922 9.16089 48.1935 7.93188 48.7872 6.83887H43.9748Z" fill="#F03723"/>
<path d="M84.3266 6.83887H80.1193V14.7092H84.3266V6.83887Z" fill="#F03723"/>
<path d="M72.8005 14.7092C73.6061 12.1641 74.0165 9.50953 74.0174 6.83887H69.8965C69.6926 10.1454 69.2051 12.528 68.4549 14.7092H72.8005Z" fill="#F03723"/>
<path d="M105.474 14.709C105.474 14.5978 105.495 14.4936 105.495 14.3617C105.495 11.8088 104.112 10.2945 101.82 9.66239C102.438 9.40658 102.995 9.02065 103.452 8.53058C103.909 8.0405 104.257 7.45766 104.471 6.82129H100.102C99.666 7.9362 98.4007 8.49538 96.7343 8.49538H93.9409V6.83866H89.7025V14.709H93.9409V11.7602H96.8622C99.5277 11.7602 101.066 12.5174 101.066 14.2227C101.063 14.3859 101.047 14.5485 101.018 14.709H105.474V14.709Z" fill="#F03723"/>
<path d="M126.258 6.83887H122.587H118.324L112.855 12.205V6.83887H108.803V14.7092H111.572H115.835L122.207 8.38793V14.7092H126.258V6.83887Z" fill="#F03723"/>
<path d="M152.809 6.83887H152.401H150.061H148.139L146.773 8.64147H145.802V6.83887H143.579H141.656V8.64147H140.685L139.319 6.83887H138.908H134.645L137.103 9.96477L133.18 14.7092H134.134H137.394H138.393L140.619 11.8889H141.656V14.7092H144.799H145.802V11.8889H146.835L149.062 14.7092H150.016H154.278L150.351 9.96477L152.809 6.83887Z" fill="#F03723"/>
<path d="M165.404 12.0765H174.79V8.35667H165.404V6.83887H161.227V14.7092H165.404V12.0765Z" fill="#F03723"/>
<path d="M196.756 6.83887H192.518V8.35667H183.668V6.83887H179.429V14.7092H183.668V12.205H192.518V14.7092H196.756V6.83887Z" fill="#F03723"/>
<path d="M218.533 6.83887H214.861H210.599L205.13 12.205V6.83887H201.081V14.7092H203.85H208.11L214.485 8.38793V14.7092H218.533V6.83887Z" fill="#F03723"/>
<path d="M227.034 12.0765H236.42V8.35667H227.034V6.83887H222.858V14.7092H227.034V12.0765Z" fill="#F03723"/>
</g>
<defs>
<clipPath id="clip0">
<rect width="242" height="24" fill="white"/>
</clipPath>
</defs>
</svg>
