<svg xmlns="http://www.w3.org/2000/svg" width="14" height="8" viewBox="0 0 14 8">
    <path fill="none" fill-rule="evenodd" stroke="#53BF67" stroke-linecap="round" stroke-linejoin="round" stroke-width="2" d="M1 7l6-6 6 6"/>
</svg>
